<svg width="18" height="18" viewBox="0 0 18 18" fill="none" xmlns="http://www.w3.org/2000/svg">
<g clip-path="url(#clip0_3554_20104)">
<circle cx="9" cy="9" r="7.5" stroke="#1F3568" stroke-width="1.5"/>
<path d="M11.25 10.125L9 7.875L6.75 10.125" stroke="#1F3568" stroke-width="1.5" stroke-linecap="round" stroke-linejoin="round"/>
</g>
<defs>
<clipPath id="clip0_3554_20104">
<rect width="18" height="18" fill="white"/>
</clipPath>
</defs>
</svg>

