<svg width="14" height="14" viewBox="0 0 14 14" fill="none" xmlns="http://www.w3.org/2000/svg">
<path d="M7 0C3.15 0 0 3.15 0 7C0 10.85 3.15 14 7 14C10.85 14 14 10.85 14 7C14 3.15 10.85 0 7 0ZM7 1.4C10.08 1.4 12.6 3.92 12.6 7C12.6 10.08 10.08 12.6 7 12.6C3.92 12.6 1.4 10.08 1.4 7C1.4 3.92 3.92 1.4 7 1.4ZM9.73027 3.82676C9.55527 3.84535 9.37945 3.93777 9.23945 4.13027L6.23027 8.33027L4.68945 6.78945C4.05945 6.08945 3.01055 7.06973 3.71055 7.76973L5.81055 9.86973C6.09055 10.1497 6.65055 10.15 6.86055 9.8L10.3605 4.9C10.7805 4.375 10.2553 3.77098 9.73027 3.82676Z" fill="#18AA1B"/>
</svg>
